$app_list_strings['send_mail_address_list']=array (
  '01' => 'nnix1@zenk.test',
  '02' => 'nnix2@zenk.test',
);

$app_list_strings['send_mail_to_list']=array (
  '01' => '営業',
  '02' => 'オペレーター',
);

$app_list_strings['attachment_list']=array (
  'attach' => '添付する',
  'unattach' => '添付しない',
);